(export (version D)
  (design
    (source Z:/sync/tari/projects/divergence-meter/opto-board/opto-board.sch)
    (date "6/12/2017 7:48:37 PM")
    (tool "Eeschema 4.0.6")
    (sheet (number 1) (name /) (tstamps /)
      (title_block
        (title)
        (company)
        (rev)
        (date)
        (source opto-board.sch)
        (comment (number 1) (value ""))
        (comment (number 2) (value ""))
        (comment (number 3) (value ""))
        (comment (number 4) (value "")))))
  (components
    (comp (ref U2)
      (value TLP627-2)
      (footprint Housings_DIP:DIP-8_W7.62mm_Socket)
      (libsource (lib opto) (part TLP627-2))
      (sheetpath (names /) (tstamps /))
      (tstamp 583602D6))
    (comp (ref P4)
      (value CONN_01X04)
      (footprint Pin_Headers:Pin_Header_Straight_1x04_Pitch2.54mm)
      (libsource (lib conn) (part CONN_01X04))
      (sheetpath (names /) (tstamps /))
      (tstamp 58380473))
    (comp (ref P5)
      (value CONN_01X04)
      (footprint Pin_Headers:Pin_Header_Straight_1x04_Pitch2.54mm)
      (libsource (lib conn) (part CONN_01X04))
      (sheetpath (names /) (tstamps /))
      (tstamp 583804D7))
    (comp (ref U3)
      (value TLP627-2)
      (footprint Housings_DIP:DIP-8_W7.62mm_Socket)
      (libsource (lib opto) (part TLP627-2))
      (sheetpath (names /) (tstamps /))
      (tstamp 58380CC9))
    (comp (ref U5)
      (value TLP627-2)
      (footprint Housings_DIP:DIP-8_W7.62mm_Socket)
      (libsource (lib opto) (part TLP627-2))
      (sheetpath (names /) (tstamps /))
      (tstamp 58383250))
    (comp (ref U6)
      (value TLP627-2)
      (footprint Housings_DIP:DIP-8_W7.62mm_Socket)
      (libsource (lib opto) (part TLP627-2))
      (sheetpath (names /) (tstamps /))
      (tstamp 5838342A))
    (comp (ref P8)
      (value CONN_01X06)
      (footprint Pin_Headers:Pin_Header_Straight_1x06_Pitch2.54mm)
      (libsource (lib conn) (part CONN_01X06))
      (sheetpath (names /) (tstamps /))
      (tstamp 587F41B1))
    (comp (ref U7)
      (value TLP627-2)
      (footprint Housings_DIP:DIP-8_W7.62mm_Socket)
      (libsource (lib opto) (part TLP627-2))
      (sheetpath (names /) (tstamps /))
      (tstamp 587F4261))
    (comp (ref R7)
      (value 22k)
      (footprint Resistors_THT:R_Axial_DIN0414_L11.9mm_D4.5mm_P20.32mm_Horizontal)
      (libsource (lib device) (part R))
      (sheetpath (names /) (tstamps /))
      (tstamp 587F86D1))
    (comp (ref R4)
      (value 220)
      (footprint Resistors_SMD:R_0805)
      (libsource (lib device) (part R))
      (sheetpath (names /) (tstamps /))
      (tstamp 5885DD7E))
    (comp (ref U8)
      (value TLP627-2)
      (footprint Housings_DIP:DIP-8_W7.62mm_Socket)
      (libsource (lib opto) (part TLP627-2))
      (sheetpath (names /) (tstamps /))
      (tstamp 5885E9F5))
    (comp (ref P9)
      (value CONN_01X06)
      (footprint Pin_Headers:Pin_Header_Straight_1x06_Pitch2.54mm)
      (libsource (lib conn) (part CONN_01X06))
      (sheetpath (names /) (tstamps /))
      (tstamp 5885EF04))
    (comp (ref U9)
      (value TLP627-2)
      (footprint Housings_DIP:DIP-8_W7.62mm_Socket)
      (libsource (lib opto) (part TLP627-2))
      (sheetpath (names /) (tstamps /))
      (tstamp 588606C0))
    (comp (ref U10)
      (value TLP627-2)
      (footprint Housings_DIP:DIP-8_W7.62mm_Socket)
      (libsource (lib opto) (part TLP627-2))
      (sheetpath (names /) (tstamps /))
      (tstamp 5886A3E8))
    (comp (ref U11)
      (value TLP627-2)
      (footprint Housings_DIP:DIP-8_W7.62mm_Socket)
      (libsource (lib opto) (part TLP627-2))
      (sheetpath (names /) (tstamps /))
      (tstamp 5886D6A7))
    (comp (ref U12)
      (value TLP627-2)
      (footprint Housings_DIP:DIP-8_W7.62mm_Socket)
      (libsource (lib opto) (part TLP627-2))
      (sheetpath (names /) (tstamps /))
      (tstamp 5886DC10))
    (comp (ref R6)
      (value 47k)
      (footprint Resistors_THT:R_Axial_DIN0414_L11.9mm_D4.5mm_P20.32mm_Horizontal)
      (libsource (lib device) (part R))
      (sheetpath (names /) (tstamps /))
      (tstamp 5887297D))
    (comp (ref R8)
      (value 220)
      (footprint Resistors_SMD:R_0805)
      (libsource (lib device) (part R))
      (sheetpath (names /) (tstamps /))
      (tstamp 58876824))
    (comp (ref R3)
      (value 220)
      (footprint Resistors_SMD:R_0805)
      (libsource (lib device) (part R))
      (sheetpath (names /) (tstamps /))
      (tstamp 58878865))
    (comp (ref P2)
      (value CONN_01X04)
      (footprint Pin_Headers:Pin_Header_Straight_1x04_Pitch2.54mm)
      (libsource (lib conn) (part CONN_01X04))
      (sheetpath (names /) (tstamps /))
      (tstamp 5887C314))
    (comp (ref P6)
      (value CONN_01X04)
      (footprint Pin_Headers:Pin_Header_Straight_1x04_Pitch2.54mm)
      (libsource (lib conn) (part CONN_01X04))
      (sheetpath (names /) (tstamps /))
      (tstamp 5887D203))
    (comp (ref P7)
      (value CONN_01X06)
      (footprint Pin_Headers:Pin_Header_Straight_1x06_Pitch2.54mm)
      (libsource (lib conn) (part CONN_01X06))
      (sheetpath (names /) (tstamps /))
      (tstamp 5887F68F))
    (comp (ref P10)
      (value CONN_01X06)
      (footprint Pin_Headers:Pin_Header_Straight_1x06_Pitch2.54mm)
      (libsource (lib conn) (part CONN_01X06))
      (sheetpath (names /) (tstamps /))
      (tstamp 58881FEB))
    (comp (ref R5)
      (value 22k)
      (footprint Resistors_THT:R_Axial_DIN0414_L11.9mm_D4.5mm_P20.32mm_Horizontal)
      (libsource (lib device) (part R))
      (sheetpath (names /) (tstamps /))
      (tstamp 588C716F))
    (comp (ref H1)
      (value CONN_01X01)
      (footprint Mounting_Holes:MountingHole_3.2mm_M3_Pad)
      (libsource (lib conn) (part CONN_01X01))
      (sheetpath (names /) (tstamps /))
      (tstamp 588F02DC))
    (comp (ref H2)
      (value CONN_01X01)
      (footprint Mounting_Holes:MountingHole_3.2mm_M3_Pad)
      (libsource (lib conn) (part CONN_01X01))
      (sheetpath (names /) (tstamps /))
      (tstamp 588F0549))
    (comp (ref H3)
      (value CONN_01X01)
      (footprint Mounting_Holes:MountingHole_3.2mm_M3_Pad)
      (libsource (lib conn) (part CONN_01X01))
      (sheetpath (names /) (tstamps /))
      (tstamp 588F0602))
    (comp (ref H4)
      (value CONN_01X01)
      (footprint Mounting_Holes:MountingHole_3.2mm_M3_Pad)
      (libsource (lib conn) (part CONN_01X01))
      (sheetpath (names /) (tstamps /))
      (tstamp 588F06AA))
    (comp (ref P1)
      (value CONN_01X02)
      (footprint tari:Pin_Header_Straight_1x02_Pitch3.81mm)
      (libsource (lib conn) (part CONN_01X02))
      (sheetpath (names /) (tstamps /))
      (tstamp 58900048))
    (comp (ref P3)
      (value CONN_01X03)
      (footprint Pin_Headers:Pin_Header_Straight_1x03_Pitch2.54mm)
      (libsource (lib conn) (part CONN_01X03))
      (sheetpath (names /) (tstamps /))
      (tstamp 5890253F))
    (comp (ref U1)
      (value 74HCT30)
      (footprint Housings_SSOP:TSSOP-14_4.4x5mm_Pitch0.65mm)
      (libsource (lib 74xx) (part 74LS30))
      (sheetpath (names /) (tstamps /))
      (tstamp 590463FE))
    (comp (ref U4)
      (value TLP187)
      (footprint tari:SO6-4PIN)
      (libsource (lib opto) (part TLP127))
      (sheetpath (names /) (tstamps /))
      (tstamp 5906B418))
    (comp (ref R2)
      (value 220)
      (footprint Resistors_SMD:R_0805)
      (libsource (lib device) (part R))
      (sheetpath (names /) (tstamps /))
      (tstamp 5906DCD7))
    (comp (ref R1)
      (value 220)
      (footprint Resistors_SMD:R_0805)
      (libsource (lib device) (part R))
      (sheetpath (names /) (tstamps /))
      (tstamp 59074F2A))
    (comp (ref D1)
      (value D_x2_ComC)
      (footprint TO_SOT_Packages_SMD:SOT-23)
      (libsource (lib tari) (part D_x2_ComC))
      (sheetpath (names /) (tstamps /))
      (tstamp 590B73AC))
    (comp (ref D2)
      (value D_x2_ComC)
      (footprint TO_SOT_Packages_SMD:SOT-23)
      (libsource (lib tari) (part D_x2_ComC))
      (sheetpath (names /) (tstamps /))
      (tstamp 590B7555))
    (comp (ref D3)
      (value D_x2_ComC)
      (footprint TO_SOT_Packages_SMD:SOT-23)
      (libsource (lib tari) (part D_x2_ComC))
      (sheetpath (names /) (tstamps /))
      (tstamp 590B7948))
    (comp (ref D4)
      (value D_x2_ComC)
      (footprint TO_SOT_Packages_SMD:SOT-23)
      (libsource (lib tari) (part D_x2_ComC))
      (sheetpath (names /) (tstamps /))
      (tstamp 590B79F2))
    (comp (ref R9)
      (value 220)
      (footprint Resistors_SMD:R_0805)
      (libsource (lib device) (part R))
      (sheetpath (names /) (tstamps /))
      (tstamp 590C2B18))
    (comp (ref P11)
      (value CONN_01X02)
      (footprint tari:Pin_Header_Straight_1x02_Pitch3.81mm)
      (libsource (lib conn) (part CONN_01X02))
      (sheetpath (names /) (tstamps /))
      (tstamp 593E6808)))
  (libparts
    (libpart (lib 74xx) (part 74LS30)
      (description "Nand 8 inputs")
      (fields
        (field (name Reference) U)
        (field (name Value) 74LS30))
      (pins
        (pin (num 1) (name ~) (type input))
        (pin (num 2) (name ~) (type input))
        (pin (num 3) (name ~) (type input))
        (pin (num 4) (name ~) (type input))
        (pin (num 5) (name ~) (type input))
        (pin (num 6) (name ~) (type input))
        (pin (num 7) (name GND) (type power_in))
        (pin (num 8) (name ~) (type input))
        (pin (num 11) (name ~) (type input))
        (pin (num 12) (name ~) (type input))
        (pin (num 14) (name VCC) (type power_in))))
    (libpart (lib conn) (part CONN_01X01)
      (description "Connector, single row, 01x01, pin header")
      (footprints
        (fp Pin_Header_Straight_1X*)
        (fp Pin_Header_Angled_1X*)
        (fp Socket_Strip_Straight_1X*)
        (fp Socket_Strip_Angled_1X*))
      (fields
        (field (name Reference) J)
        (field (name Value) CONN_01X01))
      (pins
        (pin (num 1) (name P1) (type passive))))
    (libpart (lib conn) (part CONN_01X02)
      (description "Connector, single row, 01x02, pin header")
      (footprints
        (fp Pin_Header_Straight_1X*)
        (fp Pin_Header_Angled_1X*)
        (fp Socket_Strip_Straight_1X*)
        (fp Socket_Strip_Angled_1X*))
      (fields
        (field (name Reference) J)
        (field (name Value) CONN_01X02))
      (pins
        (pin (num 1) (name P1) (type passive))
        (pin (num 2) (name P2) (type passive))))
    (libpart (lib conn) (part CONN_01X03)
      (description "Connector, single row, 01x03, pin header")
      (footprints
        (fp Pin_Header_Straight_1X*)
        (fp Pin_Header_Angled_1X*)
        (fp Socket_Strip_Straight_1X*)
        (fp Socket_Strip_Angled_1X*))
      (fields
        (field (name Reference) J)
        (field (name Value) CONN_01X03))
      (pins
        (pin (num 1) (name P1) (type passive))
        (pin (num 2) (name P2) (type passive))
        (pin (num 3) (name P3) (type passive))))
    (libpart (lib conn) (part CONN_01X04)
      (description "Connector, single row, 01x04, pin header")
      (footprints
        (fp Pin_Header_Straight_1X*)
        (fp Pin_Header_Angled_1X*)
        (fp Socket_Strip_Straight_1X*)
        (fp Socket_Strip_Angled_1X*))
      (fields
        (field (name Reference) J)
        (field (name Value) CONN_01X04))
      (pins
        (pin (num 1) (name P1) (type passive))
        (pin (num 2) (name P2) (type passive))
        (pin (num 3) (name P3) (type passive))
        (pin (num 4) (name P4) (type passive))))
    (libpart (lib conn) (part CONN_01X06)
      (description "Connector, single row, 01x06, pin header")
      (footprints
        (fp Pin_Header_Straight_1X*)
        (fp Pin_Header_Angled_1X*)
        (fp Socket_Strip_Straight_1X*)
        (fp Socket_Strip_Angled_1X*))
      (fields
        (field (name Reference) J)
        (field (name Value) CONN_01X06))
      (pins
        (pin (num 1) (name P1) (type passive))
        (pin (num 2) (name P2) (type passive))
        (pin (num 3) (name P3) (type passive))
        (pin (num 4) (name P4) (type passive))
        (pin (num 5) (name P5) (type passive))
        (pin (num 6) (name P6) (type passive))))
    (libpart (lib tari) (part D_x2_ComC)
      (description "Diode array, common cathode, like MMDB3004C")
      (fields
        (field (name Reference) D)
        (field (name Value) D_x2_ComC))
      (pins
        (pin (num 1) (name A) (type passive))
        (pin (num 2) (name A) (type passive))
        (pin (num 3) (name K) (type passive))))
    (libpart (lib device) (part R)
      (description Resistor)
      (footprints
        (fp R_*)
        (fp R_*))
      (fields
        (field (name Reference) R)
        (field (name Value) R))
      (pins
        (pin (num 1) (name ~) (type passive))
        (pin (num 2) (name ~) (type passive))))
    (libpart (lib opto) (part TLP127)
      (description "DC Darlington Optocoupler, Vce 300V, CTR 1000%, MFSOP6")
      (docs http://www.semicon.toshiba.co.jp/docs/datasheet/en/Opto/TLP127_en_datasheet_071001.pdf)
      (footprints
        (fp DIP*W7.62mm*SMD*))
      (fields
        (field (name Reference) U)
        (field (name Value) TLP127)
        (field (name Footprint) Housings_DIP:DIP-6_W7.62mm_SMD))
      (pins
        (pin (num 1) (name ~) (type passive))
        (pin (num 2) (name NC) (type NotConnected))
        (pin (num 3) (name ~) (type passive))
        (pin (num 4) (name ~) (type passive))
        (pin (num 5) (name NC) (type NotConnected))
        (pin (num 6) (name ~) (type passive))))
    (libpart (lib opto) (part TLP627-2)
      (description "DC Dual Darlington Optocoupler, Vce 300V, CTR 1000%, DIP8")
      (docs http://www.semicon.toshiba.co.jp/docs/datasheet/en/Opto/TLP627_TLP627-4_en_datasheet_071001.pdf)
      (footprints
        (fp DIP*W7.62mm*))
      (fields
        (field (name Reference) U)
        (field (name Value) TLP627-2)
        (field (name Footprint) Housings_DIP:DIP-8_W7.62mm))
      (pins
        (pin (num 1) (name ~) (type passive))
        (pin (num 2) (name ~) (type passive))
        (pin (num 3) (name ~) (type passive))
        (pin (num 4) (name ~) (type passive))
        (pin (num 5) (name ~) (type passive))
        (pin (num 6) (name ~) (type passive))
        (pin (num 7) (name ~) (type passive))
        (pin (num 8) (name ~) (type passive)))))
  (libraries
    (library (logical device)
      (uri "C:\\Program Files\\KiCad\\share\\kicad\\library\\device.lib"))
    (library (logical conn)
      (uri "C:\\Program Files\\KiCad\\share\\kicad\\library\\conn.lib"))
    (library (logical 74xx)
      (uri "C:\\Program Files\\KiCad\\share\\kicad\\library\\74xx.lib"))
    (library (logical opto)
      (uri "C:\\Program Files\\KiCad\\share\\kicad\\library\\opto.lib"))
    (library (logical tari)
      (uri Z:\sync\tari\projects\lbr\tari.lib)))
  (nets
    (net (code 1) (name "Net-(P10-Pad1)")
      (node (ref U10) (pin 2))
      (node (ref P10) (pin 1)))
    (net (code 2) (name "Net-(P10-Pad4)")
      (node (ref P10) (pin 4))
      (node (ref U11) (pin 4)))
    (net (code 3) (name "Net-(P10-Pad5)")
      (node (ref P10) (pin 5))
      (node (ref U12) (pin 2)))
    (net (code 4) (name "Net-(P10-Pad6)")
      (node (ref U12) (pin 4))
      (node (ref P10) (pin 6)))
    (net (code 5) (name GND)
      (node (ref R7) (pin 2))
      (node (ref U1) (pin 7))
      (node (ref P3) (pin 3))
      (node (ref P3) (pin 1))
      (node (ref U4) (pin 4))
      (node (ref P11) (pin 2))
      (node (ref R5) (pin 2))
      (node (ref R6) (pin 2))
      (node (ref H2) (pin 1))
      (node (ref H1) (pin 1))
      (node (ref H4) (pin 1))
      (node (ref H3) (pin 1))
      (node (ref P1) (pin 2)))
    (net (code 6) (name "Net-(R6-Pad1)")
      (node (ref U12) (pin 5))
      (node (ref R6) (pin 1))
      (node (ref U12) (pin 7)))
    (net (code 7) (name "Net-(P10-Pad2)")
      (node (ref U10) (pin 4))
      (node (ref P10) (pin 2)))
    (net (code 8) (name "Net-(R7-Pad1)")
      (node (ref U11) (pin 5))
      (node (ref U11) (pin 7))
      (node (ref R7) (pin 1))
      (node (ref U10) (pin 7))
      (node (ref U10) (pin 5)))
    (net (code 9) (name "Net-(P7-Pad6)")
      (node (ref U9) (pin 4))
      (node (ref P7) (pin 6)))
    (net (code 10) (name "Net-(P7-Pad5)")
      (node (ref U9) (pin 2))
      (node (ref P7) (pin 5)))
    (net (code 11) (name "Net-(P7-Pad4)")
      (node (ref U8) (pin 4))
      (node (ref P7) (pin 4)))
    (net (code 12) (name "Net-(P7-Pad3)")
      (node (ref P7) (pin 3))
      (node (ref U8) (pin 2)))
    (net (code 13) (name "Net-(P7-Pad2)")
      (node (ref P7) (pin 2))
      (node (ref U7) (pin 4)))
    (net (code 14) (name VCC)
      (node (ref R8) (pin 2))
      (node (ref R3) (pin 2))
      (node (ref R4) (pin 2))
      (node (ref R1) (pin 2))
      (node (ref U1) (pin 14))
      (node (ref P3) (pin 2)))
    (net (code 15) (name "Net-(R4-Pad1)")
      (node (ref U7) (pin 1))
      (node (ref U9) (pin 1))
      (node (ref U8) (pin 3))
      (node (ref U8) (pin 1))
      (node (ref U9) (pin 3))
      (node (ref U7) (pin 3))
      (node (ref R4) (pin 1)))
    (net (code 16) (name "Net-(R5-Pad1)")
      (node (ref U7) (pin 5))
      (node (ref U7) (pin 7))
      (node (ref U8) (pin 5))
      (node (ref R5) (pin 1))
      (node (ref U8) (pin 7))
      (node (ref U9) (pin 7))
      (node (ref U9) (pin 5)))
    (net (code 17) (name "Net-(P10-Pad3)")
      (node (ref U11) (pin 2))
      (node (ref P10) (pin 3)))
    (net (code 18) (name "Net-(P7-Pad1)")
      (node (ref U7) (pin 2))
      (node (ref P7) (pin 1)))
    (net (code 19) (name "Net-(U1-Pad8)")
      (node (ref U4) (pin 3))
      (node (ref U1) (pin 8)))
    (net (code 20) (name "Net-(R1-Pad1)")
      (node (ref R1) (pin 1))
      (node (ref U4) (pin 1)))
    (net (code 21) (name "Net-(R3-Pad1)")
      (node (ref U2) (pin 3))
      (node (ref U3) (pin 3))
      (node (ref U6) (pin 1))
      (node (ref U5) (pin 3))
      (node (ref U5) (pin 1))
      (node (ref U6) (pin 3))
      (node (ref U3) (pin 1))
      (node (ref U2) (pin 1))
      (node (ref R3) (pin 1)))
    (net (code 22) (name "Net-(R8-Pad1)")
      (node (ref U10) (pin 1))
      (node (ref U11) (pin 1))
      (node (ref U11) (pin 3))
      (node (ref U12) (pin 1))
      (node (ref U10) (pin 3))
      (node (ref R8) (pin 1))
      (node (ref U12) (pin 3)))
    (net (code 23) (name "Net-(R2-Pad1)")
      (node (ref U4) (pin 6))
      (node (ref R9) (pin 1))
      (node (ref R2) (pin 1)))
    (net (code 24) (name "Net-(D1-Pad1)")
      (node (ref D1) (pin 1))
      (node (ref U2) (pin 7))
      (node (ref P4) (pin 1)))
    (net (code 25) (name /1)
      (node (ref U7) (pin 8))
      (node (ref P8) (pin 1)))
    (net (code 26) (name /0)
      (node (ref U11) (pin 6))
      (node (ref P9) (pin 4)))
    (net (code 27) (name /9)
      (node (ref U11) (pin 8))
      (node (ref P9) (pin 3)))
    (net (code 28) (name /8)
      (node (ref P9) (pin 2))
      (node (ref U10) (pin 6)))
    (net (code 29) (name /7)
      (node (ref P9) (pin 1))
      (node (ref U10) (pin 8)))
    (net (code 30) (name /6)
      (node (ref U9) (pin 6))
      (node (ref P8) (pin 6)))
    (net (code 31) (name /5)
      (node (ref P8) (pin 5))
      (node (ref U9) (pin 8)))
    (net (code 32) (name /4)
      (node (ref U8) (pin 6))
      (node (ref P8) (pin 4)))
    (net (code 33) (name /3)
      (node (ref U8) (pin 8))
      (node (ref P8) (pin 3)))
    (net (code 34) (name /2)
      (node (ref P8) (pin 2))
      (node (ref U7) (pin 6)))
    (net (code 35) (name /LDP)
      (node (ref U12) (pin 8))
      (node (ref P9) (pin 5)))
    (net (code 36) (name /V1)
      (node (ref U2) (pin 2))
      (node (ref U1) (pin 5))
      (node (ref P2) (pin 1)))
    (net (code 37) (name /V2)
      (node (ref U2) (pin 4))
      (node (ref U1) (pin 6))
      (node (ref P2) (pin 2)))
    (net (code 38) (name /RDP)
      (node (ref P9) (pin 6))
      (node (ref U12) (pin 6)))
    (net (code 39) (name "Net-(D3-Pad1)")
      (node (ref D3) (pin 1))
      (node (ref U5) (pin 7))
      (node (ref P5) (pin 1)))
    (net (code 40) (name /V3)
      (node (ref U1) (pin 12))
      (node (ref U3) (pin 2))
      (node (ref P2) (pin 3)))
    (net (code 41) (name /V4)
      (node (ref P2) (pin 4))
      (node (ref U1) (pin 11))
      (node (ref U3) (pin 4)))
    (net (code 42) (name "Net-(D2-Pad2)")
      (node (ref U3) (pin 5))
      (node (ref D2) (pin 2))
      (node (ref P4) (pin 4)))
    (net (code 43) (name "Net-(D1-Pad2)")
      (node (ref P4) (pin 2))
      (node (ref D1) (pin 2))
      (node (ref U2) (pin 5)))
    (net (code 44) (name /V5)
      (node (ref P6) (pin 1))
      (node (ref U1) (pin 1))
      (node (ref U6) (pin 4)))
    (net (code 45) (name /V6)
      (node (ref P6) (pin 2))
      (node (ref U6) (pin 2))
      (node (ref U1) (pin 2)))
    (net (code 46) (name /V7)
      (node (ref U1) (pin 3))
      (node (ref U5) (pin 4))
      (node (ref P6) (pin 3)))
    (net (code 47) (name /V8)
      (node (ref P6) (pin 4))
      (node (ref U5) (pin 2))
      (node (ref U1) (pin 4)))
    (net (code 48) (name "Net-(D4-Pad1)")
      (node (ref D4) (pin 1))
      (node (ref P5) (pin 3))
      (node (ref U6) (pin 7)))
    (net (code 49) (name "Net-(D4-Pad2)")
      (node (ref P5) (pin 4))
      (node (ref U6) (pin 5))
      (node (ref D4) (pin 2)))
    (net (code 50) (name "Net-(D3-Pad2)")
      (node (ref D3) (pin 2))
      (node (ref P5) (pin 2))
      (node (ref U5) (pin 5)))
    (net (code 51) (name "Net-(D2-Pad1)")
      (node (ref D2) (pin 1))
      (node (ref U3) (pin 7))
      (node (ref P4) (pin 3)))
    (net (code 52) (name "Net-(D1-Pad3)")
      (node (ref D1) (pin 3))
      (node (ref R2) (pin 2))
      (node (ref D2) (pin 3)))
    (net (code 53) (name "Net-(U4-Pad5)")
      (node (ref U4) (pin 5)))
    (net (code 54) (name "Net-(U4-Pad2)")
      (node (ref U4) (pin 2)))
    (net (code 55) (name HT)
      (node (ref U6) (pin 8))
      (node (ref P1) (pin 1))
      (node (ref U6) (pin 6))
      (node (ref U3) (pin 8))
      (node (ref U3) (pin 6))
      (node (ref P11) (pin 1))
      (node (ref U5) (pin 8))
      (node (ref U2) (pin 8))
      (node (ref U2) (pin 6))
      (node (ref U5) (pin 6)))
    (net (code 56) (name "Net-(D3-Pad3)")
      (node (ref D3) (pin 3))
      (node (ref R9) (pin 2))
      (node (ref D4) (pin 3)))))